Spatial Data in R: A Quick Orientation – Spatial Analysis for Environmental Science
…
That’s just a plain data frame right now. It has coordinates in it, but R doesn’t know they mean anything spatial yet. We tell it:

Code

californiaOzonePointsSF <- st_as_sf(californiaOzonePoints, coords = c("longitude", "latitude"), crs = 4326)
californiaOzonePointsSF

Simple feature collection with 345 features and 1 field
Geometry type: POINT
Dimension:     XY
Bounding box:  xmin: -123.9812 ymin: 32.6314 xmax: -115.1844 ymax: 41.8457
Geodetic CRS:  WGS 84
# A tibble: 345 × 2
   ozone            geometry
 * <dbl>         <POINT [°]>
 1  24.9 (-121.2711 38.6988)
 2  36.6 (-119.7402 36.8136)
 3  28.1 (-119.7413 36.7055)
 4  26.9 (-121.7333 36.4819)
 5  20.6 (-121.9694 37.0508)
 6  39.3 (-118.1391 34.7122)
 7  30.0 (-119.2908 36.3325)
 8  28.8 (-117.1289 32.8364)
 9  45.1 (-120.4819 37.3019)
10  22.8  (-117.968 33.7958)
# ℹ 335 more rows
…
The fix is to project your data onto a plane. For California, a sensible choice is CA Albers (EPSG:3310), an equal-area projection designed for the state. Coordinates come out in meters, distances are meaningful, and the analysis methods in the rest of this book will behave the way they’re supposed to.

For an sf object, use st_transform():

Code

californiaOzonePointsAlbers <- st_transform(californiaOzonePointsSF, crs = 3310)
californiaOzonePointsAlbers

Simple feature collection with 345 features and 1 field
Geometry type: POINT
Dimension:     XY
Bounding box:  xmin: -331109.4 ymin: -593561.6 xmax: 449656.9 ymax: 432274.9
Projected CRS: NAD83 / California Albers
# A tibble: 345 × 2
   ozone              geometry
 * <dbl>           <POINT [m]>
 1  24.9  (-110428.2 76601.22)
 2  36.6   (23145.3 -133669.2)
 3  28.1  (23080.09 -145684.3)
 4  26.9 (-155083.4 -169148.9)
 5  20.6 (-174891.7 -105519.2)
 6  39.3  (170356.7 -365466.7)
 7  30.0  (63581.31 -186931.7)
 8  28.8  (269110.7 -571070.3)
 9  45.1 (-42655.93 -79315.44)
10  22.8  (188196.9 -466797.9)
# ℹ 335 more rows
…
